[
    {
        "UserName": "prof_a",
        "Name": "Professor A",
        "Created": "2020-06-24",
        "LastActive": "2020-06-21",
        "Rank": "prof",
        "Subjects": [
            {
                "Id": 1,
                "Name": "Subject A"
            }
        ],
        "Posts": [
            {
                "Title": "Post 1",
                "Message": "Content 1",
                "SubjectId": 1
            },            
            {
                "Title": "Post 2",
                "Message": "Content 2",
                "SubjectId": 1
            }
        ]
    },
    {
        "UserName": "prof_b",
        "Name": "Professor B",
        "Created": "2019-08-10",
        "LastActive": "2020-05-12",
        "Rank": "prof",
        "Subjects": [
            {
                "Id": 2,
                "Name": "Subject B"
            }
        ],
        "Posts": [
            {
                "Title": "Post 3",
                "Message": "Content 3",
                "SubjectId": 2
            },            
            {
                "Title": "Post 4",
                "Message": "Content 4",
                "SubjectId": 2
            }
        ]
    },
    {
        "UserName": "stud_a",
        "Name": "Student A",
        "Created": "2019-08-10",
        "LastActive": "2020-05-12",
        "Rank": "stud",
        "Marks": [
            {
                "Value": 5,
                "SubjectId": 1
            },            
            {
                "Value": 6,
                "SubjectId": 2
            }
        ]
    },
    {
        "UserName": "stud_b",
        "Name": "Student B",
        "Created": "2019-08-10",
        "LastActive": "2020-05-12",
        "Rank": "prof",
        "Marks": [
            {
                "Value": 5,
                "SubjectId": 1
            },            
            {
                "Value": 6,
                "SubjectId": 2
            }
        ]
    }
]